Lab 6
…
# Remove stop words
top_words_specialty <- mtsamples %>%
  unnest_tokens(word, transcription) %>%
  anti_join(stop_words, by = "word") %>%
  filter(!str_detect(word, "^[0-9]+$")) %>%
  count(medical_specialty, word, sort = TRUE)

# specialty-specific words
top_words_specialty %>%
  group_by(medical_specialty) %>%
  top_n(5, n) %>%         
  arrange(medical_specialty, desc(n))

# A tibble: 210 × 3
# Groups:   medical_specialty [40]
   medical_specialty       word          n
   <chr>                   <chr>     <int>
 1 " Allergy / Immunology" history      38
 2 " Allergy / Immunology" noted        23
 3 " Allergy / Immunology" patient      22
 4 " Allergy / Immunology" allergies    21
 5 " Allergy / Immunology" nasal        13
 6 " Allergy / Immunology" past         13
 7 " Autopsy"              left         83
 8 " Autopsy"              inch         59
 9 " Autopsy"              neck         55
10 " Autopsy"              anterior     47
# ℹ 200 more rows
…
## The most characteristical word (Highest TF-IDF) in one specialty
unique_words_by_specialty <- tfidf_words |>
  group_by(medical_specialty) |>
  slice_max(tf_idf, n = 3, with_ties = FALSE) |>
  ungroup() |>
  select(medical_specialty, word, tf_idf)
unique_words_by_specialty

# A tibble: 120 × 3
   medical_specialty             word       tf_idf
   <chr>                         <chr>       <dbl>
 1 " Allergy / Immunology"       ivig      0.00652
 2 " Allergy / Immunology"       allegra   0.00648
 3 " Allergy / Immunology"       inhalant  0.00578
 4 " Autopsy"                    petechial 0.00983
 5 " Autopsy"                    ligature  0.00817
 6 " Autopsy"                    furrow    0.00750
 7 " Bariatrics"                 gastric   0.00667
 8 " Bariatrics"                 roux      0.00521
 9 " Bariatrics"                 bypass    0.00518
10 " Cardiovascular / Pulmonary" artery    0.00360
# ℹ 110 more rows
